{
	"info": {
		"_postman_id": "e0f4e0f6-66f9-462b-9406-2455e81fd2cc",
		"name": "Virta",
		"schema": "https://schema.getpostman.com/json/collection/v2.1.0/collection.json"
	},
	"item": [
		{
			"name": "CreateCompany",
			"request": {
				"method": "POST",
				"header": [],
				"body": {
					"mode": "raw",
					"raw": "{\r\n    \"id\": \"1\",\r\n    \"name\": \"company1\",\r\n    \"parentId\": null\r\n}",
					"options": {
						"raw": {
							"language": "json"
						}
					}
				},
				"url": {
					"raw": "http://127.0.0.1:8080/api/company",
					"protocol": "http",
					"host": [
						"127",
						"0",
						"0",
						"1"
					],
					"port": "8080",
					"path": [
						"api",
						"company"
					]
				}
			},
			"response": []
		},
		{
			"name": "GetCompany",
			"request": {
				"method": "GET",
				"header": [],
				"url": {
					"raw": "http://127.0.0.1:8080/api/company/1",
					"protocol": "http",
					"host": [
						"127",
						"0",
						"0",
						"1"
					],
					"port": "8080",
					"path": [
						"api",
						"company",
						"1"
					]
				}
			},
			"response": []
		},
		{
			"name": "UpdateCompany",
			"request": {
				"method": "PUT",
				"header": [],
				"body": {
					"mode": "raw",
					"raw": "{\r\n    \"name\": \"company1_updated\"\r\n}",
					"options": {
						"raw": {
							"language": "json"
						}
					}
				},
				"url": {
					"raw": "http://127.0.0.1:8080/api/company/1",
					"protocol": "http",
					"host": [
						"127",
						"0",
						"0",
						"1"
					],
					"port": "8080",
					"path": [
						"api",
						"company",
						"1"
					]
				}
			},
			"response": []
		},
		{
			"name": "GetCompanyChildren",
			"request": {
				"method": "GET",
				"header": [],
				"url": {
					"raw": "http://127.0.0.1:8080/api/company/1",
					"protocol": "http",
					"host": [
						"127",
						"0",
						"0",
						"1"
					],
					"port": "8080",
					"path": [
						"api",
						"company",
						"1"
					]
				}
			},
			"response": []
		},
		{
			"name": "CreateStation",
			"request": {
				"method": "POST",
				"header": [],
				"body": {
					"mode": "raw",
					"raw": "{\r\n    \"id\": \"1\",\r\n    \"name\": \"station1\",\r\n    \"latitude\": 65,\r\n    \"longitude\": 88\r\n}",
					"options": {
						"raw": {
							"language": "json"
						}
					}
				},
				"url": {
					"raw": "http://127.0.0.1:8080/api/company/1/station",
					"protocol": "http",
					"host": [
						"127",
						"0",
						"0",
						"1"
					],
					"port": "8080",
					"path": [
						"api",
						"company",
						"1",
						"station"
					]
				}
			},
			"response": []
		},
		{
			"name": "GetStation",
			"request": {
				"method": "GET",
				"header": [],
				"url": {
					"raw": "http://127.0.0.1:8080/api/station/1",
					"protocol": "http",
					"host": [
						"127",
						"0",
						"0",
						"1"
					],
					"port": "8080",
					"path": [
						"api",
						"station",
						"1"
					]
				}
			},
			"response": []
		},
		{
			"name": "GetCompanyStations",
			"request": {
				"method": "GET",
				"header": [],
				"url": {
					"raw": "http://127.0.0.1:8080/api/company/1/stations",
					"protocol": "http",
					"host": [
						"127",
						"0",
						"0",
						"1"
					],
					"port": "8080",
					"path": [
						"api",
						"company",
						"1",
						"stations"
					]
				}
			},
			"response": []
		},
		{
			"name": "DeleteStation",
			"request": {
				"method": "DELETE",
				"header": [],
				"body": {
					"mode": "raw",
					"raw": "{\r\n    \"id\": \"2\",\r\n    \"title\": \"station2\"\r\n}",
					"options": {
						"raw": {
							"language": "json"
						}
					}
				},
				"url": {
					"raw": "http://127.0.0.1:8080/api/company/1/station/1",
					"protocol": "http",
					"host": [
						"127",
						"0",
						"0",
						"1"
					],
					"port": "8080",
					"path": [
						"api",
						"company",
						"1",
						"station",
						"1"
					]
				}
			},
			"response": []
		},
		{
			"name": "GetStationByDistance",
			"request": {
				"method": "GET",
				"header": [],
				"url": {
					"raw": "http://127.0.0.1:8080/api/station/{latitude}/{longitude}/{distance}",
					"protocol": "http",
					"host": [
						"127",
						"0",
						"0",
						"1"
					],
					"port": "8080",
					"path": [
						"api",
						"station",
						"{latitude}",
						"{longitude}",
						"{distance}"
					]
				}
			},
			"response": []
		}
	],
	"protocolProfileBehavior": {}
}